Division,WeightClassKg,Place,Name,Team,BodyweightKg,Best3SquatKg,Best3BenchKg,Best3DeadliftKg,TotalKg,Equipment,Event,Sex
Boys,52,1,Nick Kiser,Iowa Park,51.53,131.54,68.04,129.27,328.85,Single-ply,SBD,M
Boys,52,2,Kyle Reed,Wichita Falls City View,51.71,136.08,65.77,124.74,326.59,Single-ply,SBD,M
Boys,52,3,Colten Upchurch,Burkburnett,45.81,77.11,38.56,77.11,192.78,Single-ply,SBD,M
Boys,56,1,Ryan Thomas,Iowa Park,55.79,170.1,120.2,181.44,471.74,Single-ply,SBD,M
Boys,56,2,Luis Gonzalez,Wichita Falls City View,55.79,172.37,86.18,172.37,430.91,Single-ply,SBD,M
Boys,56,3,Sergio Romero,Childress,55.79,131.54,72.57,136.08,340.19,Single-ply,SBD,M
Boys,56,4,Isaiah Esquibel,Wichita Falls Hirschi,52.39,124.74,72.57,138.35,335.66,Single-ply,SBD,M
Boys,56,5,Jacob Wooten,Wichita Falls Rider,54.66,122.47,65.77,140.61,328.85,Single-ply,SBD,M
Boys,56,6,Justin Wilson #3,Wichita Falls City View,55.34,113.4,65.77,129.27,308.44,Single-ply,SBD,M
Boys,60,1,Dalton Adkins,Iowa Park,59.65,188.24,136.08,183.7,508.02,Single-ply,SBD,M
Boys,60,2,Angel Garza,Decatur,57.61,158.76,77.11,165.56,401.43,Single-ply,SBD,M
Boys,60,3,Caleb McWhorter,Wichita Falls City View,59.87,142.88,70.31,147.42,360.61,Single-ply,SBD,M
Boys,60,4,Mychal Lee,Wichita Falls Hirschi,58.51,140.61,74.84,138.35,353.8,Single-ply,SBD,M
Boys,60,5,Christian Gauthier,Burkburnett,59.65,113.4,79.38,142.88,335.66,Single-ply,SBD,M
Boys,60,6,Thomas Corrigan,Seymour,58.51,117.93,68.04,140.61,326.59,Single-ply,SBD,M
Boys,60,7,Efrain Andrade,Decatur,58.74,115.67,70.31,117.93,303.91,Single-ply,SBD,M
Boys,60,8,Quinton Rice,Petrolia,56.02,113.4,68.04,111.13,292.57,Single-ply,SBD,M
Boys,67.5,1,J Paul Axtell,Olney,66.68,222.26,122.47,199.58,544.31,Single-ply,SBD,M
Boys,67.5,2,Zachary Downing,Wichita Falls Hirschi,65.32,199.58,108.86,195.04,503.49,Single-ply,SBD,M
Boys,67.5,3,Justin Taylor,Decatur,67.13,167.83,113.4,181.44,462.66,Single-ply,SBD,M
Boys,67.5,4,John Leija,Vernon,67.13,172.37,113.4,174.63,460.4,Single-ply,SBD,M
Boys,67.5,5,Dalton Trouille,Olney,65.54,172.37,111.13,163.29,446.79,Single-ply,SBD,M
Boys,67.5,6,Devon Hall,Seymour,64.41,163.29,95.25,176.9,435.45,Single-ply,SBD,M
Boys,67.5,7,Cody Castor,Childress,66.45,167.83,92.99,154.22,415.04,Single-ply,SBD,M
Boys,67.5,8,Talon Hise,Iowa Park,66.72,151.95,95.25,167.83,415.04,Single-ply,SBD,M
Boys,67.5,9,Tuan Hoang,Wichita Falls City View,61.69,163.29,79.38,170.1,412.77,Single-ply,SBD,M
Boys,67.5,10,Nathaniel Downing,Wichita Falls Hirschi,65.32,158.76,86.18,176.9,421.84,Single-ply,SBD,M
Boys,67.5,11,Brysan Garrard,Vernon,63.5,142.88,79.38,142.88,365.14,Single-ply,SBD,M
Boys,67.5,12,Chad Thomas,Vernon,67.13,122.47,81.65,145.15,349.27,Single-ply,SBD,M
Boys,67.5,13,Matt Patterson,Electra,67.13,102.06,65.77,124.74,292.57,Single-ply,SBD,M
Boys,75,1,Danny Ho,Wichita Falls City View,74.84,238.14,129.27,226.8,594.21,Single-ply,SBD,M
Boys,75,2,Marcus King,Wichita Falls,74.62,208.65,111.13,226.8,546.58,Single-ply,SBD,M
Boys,75,3,Nate McLemore,Iowa Park,74.84,199.58,142.88,188.24,530.7,Single-ply,SBD,M
Boys,75,4,Wyatt Burrows,Olney,68.27,199.58,104.33,213.19,517.1,Single-ply,SBD,M
Boys,75,5,Hunter Abston,Olney,74.84,192.78,129.27,176.9,498.95,Single-ply,SBD,M
Boys,75,6,Josh Wells,Jacksboro,71.21,170.1,104.33,183.7,458.13,Single-ply,SBD,M
Boys,75,7,Aaron Fraga,Wichita Falls,73.94,165.56,117.93,167.83,451.32,Single-ply,SBD,M
Boys,75,8,Nick Alaniz,Wichita Falls,73.94,170.1,102.06,174.63,446.79,Single-ply,SBD,M
Boys,75,9,Gerrick McKinney,Wichita Falls Hirschi,74.62,142.88,102.06,174.63,419.57,Single-ply,SBD,M
Boys,75,10,Josh Kelley,Childress,72.35,147.42,97.52,170.1,415.04,Single-ply,SBD,M
Boys,75,11,Landon Washburn,Petrolia,68.49,147.42,92.99,147.42,387.82,Single-ply,SBD,M
Boys,75,12,Genaro Samano,Vernon,72.12,140.61,77.11,167.83,385.55,Single-ply,SBD,M
Boys,75,13,Dalton Reagan,Vernon,72.35,149.69,70.31,149.69,369.68,Single-ply,SBD,M
Boys,75,14,Quade McFall,Vernon,70.31,136.08,68.04,158.76,362.87,Single-ply,SBD,M
Boys,75,15,Jason Hopkins,Electra,68.95,142.88,77.11,136.08,356.07,Single-ply,SBD,M
Boys,75,16,Travis Weins,Wichita Falls,68.95,124.74,79.38,142.88,347,Single-ply,SBD,M
Boys,75,17,Bryan Hernandez,Olney,72.57,161.03,,,161.03,Single-ply,SBD,M
Boys,75,DQ,Thomas Adams,Childress,74.84,,,,,Single-ply,SBD,M
Boys,82.5,1,Reed Latham,Petrolia,76.88,215.46,142.88,215.46,573.79,Single-ply,SBD,M
Boys,82.5,2,Dre Gresham,Iowa Park,80.06,204.12,136.08,215.46,555.65,Single-ply,SBD,M
Boys,82.5,3,Payton McAlister,Decatur,79.38,199.58,127.01,217.72,544.31,Single-ply,SBD,M
Boys,82.5,4,Garet Gill,Wichita Falls,75.07,215.46,122.47,201.85,539.77,Single-ply,SBD,M
Boys,82.5,5,Bodi Gilbert,Electra,80.74,201.85,149.69,188.24,539.77,Single-ply,SBD,M
Boys,82.5,6,Isaiah White,Wichita Falls Hirschi,75.75,215.46,113.4,188.24,517.1,Single-ply,SBD,M
Boys,82.5,7,Keishun Hickerson,Wichita Falls,79.15,195.04,102.06,215.46,512.56,Single-ply,SBD,M
Boys,82.5,8,Tyler Campbell,Iowa Park,81.28,176.9,104.33,188.24,469.47,Single-ply,SBD,M
Boys,82.5,9,Dylan Grider,Burkburnett,80.06,176.9,111.13,176.9,464.93,Single-ply,SBD,M
Boys,82.5,10,Josh Ealom,Vernon,82.1,154.22,108.86,183.7,446.79,Single-ply,SBD,M
Boys,82.5,11,Jaime Lizama,Childress,80.51,170.1,104.33,167.83,442.25,Single-ply,SBD,M
Boys,82.5,12,TJ Story,Vernon,80.29,158.76,97.52,179.17,435.45,Single-ply,SBD,M
Boys,82.5,13,Montana Hernandez,Electra,76.88,149.69,97.52,165.56,412.77,Single-ply,SBD,M
Boys,82.5,14,Jacob Stacy,Petrolia,75.3,154.22,99.79,151.95,405.97,Single-ply,SBD,M
Boys,82.5,15,Noah Elliot,Decatur,81.19,149.69,81.65,172.37,403.7,Single-ply,SBD,M
Boys,82.5,16,Nathan Selman,Decatur,75.52,142.88,79.38,149.69,371.95,Single-ply,SBD,M
Boys,82.5,17,Andres Huerta,Vernon,79.83,140.61,74.84,147.42,362.87,Single-ply,SBD,M
Boys,90,1,Alex Guerrero,Childress,89.13,222.26,142.88,254.01,619.15,Single-ply,SBD,M
Boys,90,2,Spencer Garcia,Wichita Falls City View,89.13,229.06,122.47,231.33,582.87,Single-ply,SBD,M
Boys,90,3,Roman Turner,Wichita Falls Hirschi,85.73,219.99,136.08,204.12,560.19,Single-ply,SBD,M
Boys,90,4,Waylynn Williams,Iowa Park,88.68,204.12,115.67,183.7,503.49,Single-ply,SBD,M
Boys,90,5,Jessy Upchurch,Burkburnett,83.23,181.44,131.54,188.24,501.22,Single-ply,SBD,M
Boys,90,6,Preston Guerra,Seymour,85.5,181.44,115.67,204.12,501.22,Single-ply,SBD,M
Boys,90,7,Juan Salazar,Vernon,84.14,181.44,111.13,199.58,492.15,Single-ply,SBD,M
Boys,90,8,Tanner Mills,Childress,88.45,167.83,111.13,174.63,453.59,Single-ply,SBD,M
Boys,90,9,Brady Brinkman,Iowa Park,86.18,176.9,108.86,163.29,449.06,Single-ply,SBD,M
Boys,90,10,James White,Decatur,88.45,147.42,74.84,163.29,385.55,Single-ply,SBD,M
Boys,90,11,Cody Howard,Jacksboro,83.46,138.35,79.38,149.69,367.41,Single-ply,SBD,M
Boys,90,DQ,Danny Wood,Burkburnett,88,,,,,Single-ply,SBD,M
Boys,100,1,Tyler Kindig,Wichita Falls Rider,91.63,226.8,138.35,188.24,553.38,Single-ply,SBD,M
Boys,100,2,Hunter Bagley,Iowa Park,97.98,208.65,124.74,210.92,544.31,Single-ply,SBD,M
Boys,100,3,Willie Phillips,Wichita Falls Rider,93.89,197.31,122.47,215.46,535.24,Single-ply,SBD,M
Boys,100,4,Adrian Arthur,Wichita Falls Hirschi,90.95,192.78,117.93,219.99,530.7,Single-ply,SBD,M
Boys,100,5,Jimmy Tran,Wichita Falls,91.17,197.31,95.25,188.24,480.81,Single-ply,SBD,M
Boys,100,6,Branden Brewer,Iowa Park,96.84,183.7,106.59,185.97,476.27,Single-ply,SBD,M
Boys,100,7,Zane Hickey,Decatur,90.95,181.44,83.91,181.44,446.79,Single-ply,SBD,M
Boys,110,1,Drew McVicker,Olney,106.14,328.85,204.12,226.8,759.77,Single-ply,SBD,M
Boys,110,2,Conner Bales,Burkburnett,103.65,229.06,145.15,242.67,616.89,Single-ply,SBD,M
Boys,110,3,Ramon Guerra,Wichita Falls City View,101.15,238.14,111.13,238.14,587.4,Single-ply,SBD,M
Boys,110,4,Dylan Hudson,Olney,100.92,229.06,140.61,197.31,566.99,Single-ply,SBD,M
Boys,110,5,Rhett Buckley,Childress,108.18,219.99,127.01,195.04,542.04,Single-ply,SBD,M
Boys,110,6,Raymond Carrasco,Olney,100.7,219.99,117.93,197.31,535.24,Single-ply,SBD,M
Boys,110,7,Preston Newman,Vernon,105.01,190.51,113.4,195.04,498.95,Single-ply,SBD,M
Boys,110,8,Chandler Bridges,Jacksboro,102.06,201.85,102.06,192.78,496.68,Single-ply,SBD,M
Boys,110,9,Joseph Crouse,Archer City,107.95,170.1,113.4,192.78,476.27,Single-ply,SBD,M
Boys,110,10,Javier Juarez,Childress,104.1,190.51,102.06,181.44,474,Single-ply,SBD,M
Boys,110,11,KC Rater,Jacksboro,102.51,147.42,90.72,145.15,383.29,Single-ply,SBD,M
Boys,110,12,Isaiah Villalobos,Wichita Falls,106.14,136.08,74.84,163.29,374.21,Single-ply,SBD,M
Boys,125,1,Ronnie Killen,Wichita Falls City View,111.58,297.1,136.08,288.03,721.21,Single-ply,SBD,M
Boys,125,2,Jacob Boswell,Burkburnett,119.29,260.82,142.88,229.06,632.76,Single-ply,SBD,M
Boys,125,3,Edgar Ramirez,Wichita Falls Hirschi,120.2,272.16,136.08,204.12,612.35,Single-ply,SBD,M
Boys,125,4,Austin McCarty,Childress,112.04,190.51,131.54,195.04,517.1,Single-ply,SBD,M
Boys,125,5,Jeremiah Stanley,Iowa Park,116.35,192.78,131.54,163.29,487.61,Single-ply,SBD,M
Boys,125,6,Jayden Workman,Electra,112.94,183.7,111.13,172.37,467.2,Single-ply,SBD,M
Boys,125,7,Jose Barron,Wichita Falls Rider,110.45,242.67,147.42,,390.09,Single-ply,SBD,M
Boys,125+,1,Deondre Clark,Wichita Falls Hirschi,129.73,276.69,163.29,210.92,650.91,Single-ply,SBD,M
Boys,125+,2,Dontryll Dever,Wichita Falls,132.45,251.74,156.49,231.33,639.57,Single-ply,SBD,M
Boys,125+,3,Quentin Jones,Wichita Falls City View,158.08,231.33,136.08,195.04,562.45,Single-ply,SBD,M
Boys,125,4,Carlos Romero,Childress,124.96,219.99,124.74,204.12,548.85,Single-ply,SBD,M
Boys,125+,5,Jacob Venable,Wichita Falls,137.89,224.53,104.33,192.78,521.63,Single-ply,SBD,M
Boys,125+,6,Todd Beebe,Vernon,128.14,183.7,102.06,206.38,492.15,Single-ply,SBD,M
Boys,125+,7,Seth Patrick,Decatur,141.52,90.72,70.31,124.74,285.76,Single-ply,SBD,M
