Sex,WeightClassKg,Name,AgeClass,Team,BodyweightKg,Best3SquatKg,Best3BenchKg,Best3DeadliftKg,TotalKg,Place,Division,Event,Equipment
M,67.5,Mark James Horrobin,0-22.5,NW,67.5,85,115,142.5,342.5,1,M-E-Open,SBD,Single-ply
M,67.5,Lee Judson,0-22.5,NW,64.1,90,82.5,130,302.5,2,M-E-Open,SBD,Single-ply
M,75,Scott Nolan,0-22.5,NW,74,145,95,205,445,1,M-E-Open,SBD,Single-ply
M,90,Igor Orlowski,0-19.5,NW,84.7,200,120,210,530,2,M-E-Open,SBD,Single-ply
M,90,Paul Morris,0-22.5,NW,89.9,200,165,245,610,1,M-E-Open,SBD,Single-ply
M,100,Pascal O'Driscoll,0-22.5,NW,90,175,100,205,480,1,M-E-Open,SBD,Single-ply
M,110,Jon Walsh,0-22.5,NW,109.9,220,162,262.5,645,1,M-E-Open,SBD,Single-ply
M,125,Tony Bonner,0-22.5,NW,117.9,215,140,,,DQ,M-E-Open,SBD,Single-ply
M,90,Rick Partridge,0-22.5,NW,87.7,180,132.5,200,512.5,G,M-E-Guest,SBD,Single-ply
