Place,Sex,Name,Event,Division,WeightClassKg,Equipment,BodyweightKg,Best3SquatKg,Best3BenchKg,Best3DeadliftKg,TotalKg,BirthYear
,M,Mitchell Gruver,SBD,O,67.5,Single-ply,65.9,172.5,102.5,170,445,1993
,M,Nick Phillips,SBD,O,75,Single-ply,73.5,202.5,157.5,192.5,552.5,1992
,M,Anthony Joseph,SBD,O,82.5,Single-ply,82,255,165,257.5,677.5,1970
,M,John Dalessio,SBD,O,82.5,Single-ply,82.1,255,140,235,630,1968
,M,Edju Gasinowski,SBD,O,82.5,Single-ply,81.7,235,142.5,232.5,610,1972
,M,Tanner Stengel,SBD,O,82.5,Single-ply,82.2,205,120,227.5,552.5,1993
,M,Ian Gardocki,SBD,O,82.5,Single-ply,79.9,205,135,197.5,537.5,1992
,M,Josh Myers,SBD,O,90,Single-ply,89.9,282.5,170,237.5,690,
DQ,M,James Brown,SBD,O,90,Single-ply,87.7,,,,,1965
,M,Paul Kemper,SBD,O,100,Single-ply,100,242.5,165,237.5,645,1994
,M,David Wong,SBD,O,100,Single-ply,95.6,225,130,210,565,1994
,M,Christopher Aghabi,SBD,O,100,Single-ply,91.2,215,127.5,212.5,555,1993
,M,Kyle Troiano,SBD,R-O,60,Raw,59.7,120,85,175,380,1994
,M,Andrew Watson,SBD,R-O,67.5,Raw,66.9,216,135,240,591,1988
,M,Justin Mazza,SBD,R-O,67.5,Raw,66.7,175,150,217.5,542.5,1992
,M,Derek Rudy,SBD,R-O,67.5,Raw,66,177.5,92.5,195,465,1995
,M,Michael DeCarlo,SBD,R-O,67.5,Raw,60.2,125,95,165,385,1972
,M,Paul Griffith,SBD,R-O,67.5,Raw,66.8,137.5,75,155,367.5,1945
,M,Chris DePietrantonio,SBD,R-O,75,Raw,73.4,170,145,245,560,
,M,Mike Cagliola,SBD,R-O,75,Raw,74,197.5,137.5,212.5,547.5,1970
,M,Joseph Cavanaugh,SBD,R-O,75,Raw,73.9,170,110,220,500,1990
,M,Samuel Barrett,SBD,R-O,75,Raw,74,142.5,92.5,165,400,1992
,M,Wayne Felger,SBD,R-O,75,Raw,70.3,102.5,80,155,337.5,1958
,M,Michael Saunders,SBD,R-O,75,Raw,74.5,215,,,215,1989
,M,Joshua Mink,SBD,R-O,82.5,Raw,81.4,197.5,140,237.5,575,1991
,M,Tyler Caparoni,SBD,R-O,82.5,Raw,79.8,195,102.5,230,527.5,1994
,M,Michael Carson,SBD,R-O,82.5,Raw,81.4,172.5,125,220,517.5,1976
,M,Ozzie Hyppolite,SBD,R-O,82.5,Raw,81.2,165,137.5,210,512.5,1980
,M,Michael Brown,SBD,R-O,82.5,Raw,79.9,150,137.5,215,502.5,1956
,M,Michael Tsamutalis,SBD,R-O,82.5,Raw,78.1,162.5,95,185,442.5,1996
,M,Steven Westbrook,SBD,R-O,82.5,Raw,81.7,147.5,80,185,412.5,1989
,M,Cory Zaleski,SBD,R-O,82.5,Raw,82.1,142.5,87.5,177.5,407.5,1984
,M,Kevin Sullivan,SBD,R-O,82.5,Raw,82,147.5,82.5,170,400,1990
,M,Anthony Parella,SBD,R-O,90,Raw,89.8,245,165,287.5,697.5,
,M,Mike Scheffel,SBD,R-O,90,Raw,88.9,200,147.5,252.5,600,
,M,Jerry Barlow,SBD,R-O,90,Raw,87.8,170,150,247.5,567.5,1987
,M,Raffaele Longo,SBD,R-O,90,Raw,87.9,185,117.5,217.5,520,
,M,Nathaniel Margolis,SBD,R-O,90,Raw,88.6,177.5,117.5,215,510,1992
,M,Paul Kelley,SBD,R-O,90,Raw,88.5,185,117.5,200,502.5,1985
,M,Mike Hemmig,SBD,R-O,90,Raw,88.2,147.5,105,202.5,455,1964
,M,Jeffrey Martin,SBD,R-O,90,Raw,88,145,105,182.5,432.5,1979
,M,Douglas Hassel,SBD,R-O,90,Raw,84.6,155,90,165,410,1997
,M,Matthew Carbone,SBD,R-O,90,Raw,85.4,145,92.5,170,407.5,1990
,M,Timothy Kreider,SBD,R-O,90,Raw,88.3,130,75,175,380,1988
,M,Nixlot Dameus,SBD,R-O,90,Raw,89.6,,112.5,190,302.5,1998
,M,Anthony Petrucci,SBD,R-O,100,Raw,96.6,227.5,162.5,260,650,1992
,M,Aaron Aguiar,SBD,R-O,100,Raw,97.2,200,170,232.5,602.5,
,M,Ty Wagerle,SBD,R-O,100,Raw,94,207.5,140,245,592.5,1976
,M,Chris DeGeorge,SBD,R-O,100,Raw,97.9,212.5,145,232.5,590,
,M,Joe Hartigan,SBD,R-O,100,Raw,98.3,192.5,145,235,572.5,1986
,M,Peter Hubbard,SBD,R-O,100,Raw,98.6,200,135,210,545,1994
,M,Phillip Rosenstern,SBD,R-O,100,Raw,95.4,170,107.5,250,527.5,1954
,M,Connor Fultz,SBD,R-O,100,Raw,92.8,185,142.5,197.5,525,1993
,M,Matthew Berger,SBD,R-O,100,Raw,95.1,185,137.5,190,512.5,1977
,M,Daniel Miller,SBD,R-O,100,Raw,97.5,160,122.5,227.5,510,1992
,M,Drew Krause,SBD,R-O,100,Raw,94.1,177.5,100,200,477.5,1987
,M,Qadir Scudder,SBD,R-O,100,Raw,99.2,137.5,95,220,452.5,1996
,M,Anthony Contino,SBD,R-O,100,Raw,94.3,115,102.5,205,422.5,1946
,M,Christopher Martz Sr,SBD,R-O,100,Raw,93.8,115,92.5,150,357.5,1963
,M,Nathaniel Morton,SBD,R-O,100,Raw,93.3,90,105,145,340,1995
,M,Ron Zsido,SBD,R-O,100,Raw,97.8,180,,,180,1974
,M,Anthony Stavenski,SBD,R-O,110,Single-ply,104.3,272.5,270,250,792.5,1979
,M,Matthew Rosensweet,SBD,R-O,110,Raw,109.5,280,235,265,780,1993
,M,Ronald Scott Yard Sr,SBD,R-O,110,Raw,110,267.5,195,287.5,750,
,M,Edward Christie,SBD,R-O,110,Raw,109.5,237.5,147.5,318.5,703.5,1974
,M,Michael Stumpf,SBD,R-O,110,Raw,107.9,235,160,267.5,662.5,1989
,M,John Barlock,SBD,R-O,110,Raw,107.7,240,160,230,630,1970
,M,Christopher Scavicchio,SBD,R-O,110,Raw,105.6,247.5,152.5,225,625,
,M,Edward Schreiner,SBD,R-O,110,Raw,103.8,212.5,142.5,237.5,592.5,1990
,M,Harry Derr III,SBD,R-O,110,Raw,108.3,222.5,142.5,225,590,1976
,M,Steve Halliday,SBD,R-O,110,Raw,108.8,197.5,160,230,587.5,
,M,Jeffrey Van Dyke,SBD,R-O,110,Raw,103.1,182.5,112.5,227.5,522.5,
,M,Gerald Burke,SBD,R-O,110,Raw,104.4,160,145,160,465,1944
,M,Peter King,SBD,R-O,125,Raw,111.6,220,172.5,215,607.5,1991
,M,Shay Mento,SBD,R-O,125,Raw,123,197.5,145,240,582.5,1995
,M,Daravann Lok,SBD,R-O,125,Raw,120.6,137.5,82.5,165,385,1995
,M,Domenick Fonio,SBD,R-O,125,Raw,122.8,62.5,62.5,62.5,187.5,1962
,M,Brad Newhard,SBD,R-O,125+,Raw,129.2,357.5,197.5,245,800,1991
,M,James Smith,SBD,R-O,125+,Raw,174.4,250,175,267.5,692.5,1988
,M,Hiram Brewer,SBD,R-O,125+,Raw,138.3,227.5,162.5,232.5,622.5,1991
,M,Michael Pietrowski,SBD,R-O,125+,Raw,142.9,250,145,215,610,1994
,F,Sarah Cruz-Ortiz,SBD,O,48,Single-ply,45.2,67.5,40,102.5,210,1994
,F,Karen Blessington,SBD,O,56,Single-ply,55.7,85,67.5,137.5,290,1960
,F,Kristina Malinowski,SBD,O,56,Single-ply,55.4,75,47.5,92.5,215,1991
,F,Libby Snyder,SBD,O,67.5,Single-ply,64.6,115,62.5,140,317.5,1992
,F,Jeanette Cohen,SBD,O,67.5,Single-ply,62.2,125,65,112.5,302.5,1993
,F,Katie Mazza,SBD,O,75,Single-ply,71,162.5,90,140,392.5,1990
,F,Logan Himich,SBD,O,75,Single-ply,72.7,125,52.5,142.5,320,1993
,F,Sara Bauer,SBD,O,75,Single-ply,71.1,135,55,117.5,307.5,1992
,F,Lindsey Blystone,SBD,O,82.5,Single-ply,82.2,172.5,72.5,25,270,1991
,F,Courtney Lynch,SBD,O,90+,Single-ply,112.5,185,87.5,165,437.5,1986
,F,Megan McDonald,SBD,R-O,48,Raw,46.4,82.5,57.5,135,275,1989
,F,Colleen McNamara,SBD,R-O,48,Raw,47,90,57.5,117.5,265,1981
,F,Elizabeth Monk,SBD,R-O,52,Raw,51.1,80,60,97.5,237.5,1996
,F,Angie Klaassen,SBD,R-O,52,Raw,49.9,70,55,102.5,227.5,
,F,Courtney German,SBD,R-O,52,Raw,49.9,77.5,40,105,222.5,1999
,F,Karen Backenstose,SBD,R-O,56,Raw,55.3,102.5,60,127.5,290,1976
,F,Roxanne Kirstner,SBD,R-O,56,Raw,56,85,60,110,255,1976
,F,Michelle McCabe,SBD,R-O,56,Raw,53.9,85,62.5,100,247.5,1984
,F,Melissa Erwin,SBD,R-O,60,Raw,60,115,72.5,170,357.5,1981
,F,Julia Famiglietti,SBD,R-O,60,Raw,57.2,102.5,62.5,150,315,1987
,F,Alyssa Haveson,SBD,R-O,60,Raw,58.5,102.5,57.5,132.5,292.5,1988
,F,Joanne Craig,SBD,R-O,60,Raw,59,97.5,50,117.5,265,1961
,F,Leigh Thierfelder,SBD,R-O,60,Raw,57.3,77.5,70,117.5,265,1982
,F,Alyssa Booth,SBD,R-O,60,Raw,59.1,102.5,37.5,112.5,252.5,1994
,F,Melanie Merryman,SBD,R-O,60,Raw,59.9,72.5,52.5,107.5,232.5,1991
,F,Nida Setthachayanon,SBD,R-O,60,Raw,58.8,70,47.5,102.5,220,1980
,F,Shannon Leo,SBD,R-O,60,Raw,57.5,57.5,47.5,100,205,1994
,F,Whitney Hawkins,SBD,R-O,67.5,Raw,66.5,105,52.5,122.5,280,1990
,F,Brandi Hurst,SBD,R-O,67.5,Raw,67.1,97.5,50,127.5,275,1982
,F,Rebecca McPeak,SBD,R-O,67.5,Raw,62.8,67.5,52.5,92.5,212.5,1979
,F,Lynne Renshaw,SBD,R-O,75,Raw,68,95,72.5,137.5,305,1956
,F,Heather Uhlin,SBD,R-O,75,Raw,73.2,87.5,57.5,127.5,272.5,1969
,F,Brandi Eberly,SBD,R-O,75,Raw,73.8,80,50,97.5,227.5,1976
,F,Chris Cummings,SBD,R-O,75,Raw,71.5,80,45,100,225,
,F,Jessica Williams,SBD,R-O,90+,Raw,112.3,125,65,157.5,347.5,1996
,F,Amy Scholl,SBD,R-O,90+,Raw,113.1,92.5,77.5,147.5,317.5,
,F,Jamie Wilcox,SBD,R-O,90+,Raw,135.3,72.5,45,175,292.5,1991
,F,Sherry Weaver,SBD,R-O,90+,Raw,108,70,65,102.5,237.5,1964
,M,Joshua Ruth,SBD,R-O,110,Raw,105.5,170,137.5,237.5,545,1981
